Naziv,LD,LG,DD,DG
number-11 (2).png,"(28, 26)","(28, 97)","(75, 26)","(75, 97)"
number-11.png,"(40, 29)","(40, 85)","(81, 29)","(81, 85)"
number-133 (2).png,"(30, 32)","(30, 97)","(78, 32)","(78, 97)"
number-133.png,"(37, 21)","(37, 81)","(66, 21)","(66, 81)"
number-149 (2).png,"(17, 28)","(17, 89)","(59, 28)","(59, 89)"
number-149.png,"(34, 25)","(34, 83)","(72, 25)","(72, 83)"
number-15 (2).png,"(70, 95)","(70, 12)","(21, 95)","(21, 12)"
number-15.png,"(45, 27)","(45, 75)","(78, 27)","(78, 75)"
number-158 (2).png,"(32, 30)","(32, 84)","(77, 30)","(77, 84)"
number-158.png,"(25, 19)","(25, 75)","(60, 19)","(60, 75)"
number-163 (2).png,"(32, 33)","(32, 96)","(76, 33)","(76, 96)"
number-163.png,"(44, 19)","(44, 87)","(90, 19)","(90, 87)"
number-168 (2).png,"(33, 22)","(33, 85)","(77, 22)","(77, 85)"
number-168.png,"(36, 11)","(36, 81)","(68, 11)","(68, 81)"
number-185 (2).png,"(31, 17)","(31, 86)","(78, 17)","(78, 86)"
number-185.png,"(42, 21)","(42, 77)","(67, 21)","(67, 77)"
number-187 (2).png,"(18, 31)","(18, 96)","(66, 31)","(66, 96)"
number-187.png,"(41, 18)","(41, 86)","(68, 18)","(68, 86)"
number-207 (2).png,"(18, 13)","(18, 71)","(70, 13)","(70, 71)"
number-207.png,"(62, 89)","(62, 20)","(29, 89)","(29, 20)"
number-34 (2).png,"(29, 16)","(29, 94)","(75, 16)","(75, 94)"
number-34.png,"(39, 25)","(39, 90)","(77, 25)","(77, 90)"
number-65 (2).png,"(28, 22)","(28, 83)","(76, 22)","(76, 83)"
number-65.png,"(34, 20)","(34, 78)","(68, 20)","(68, 78)"
number-67 (2).png,"(30, 42)","(30, 98)","(78, 42)","(78, 98)"
number-67.png,"(32, 15)","(32, 76)","(67, 15)","(67, 76)"
number-71 (2).png,"(22, 26)","(22, 85)","(67, 26)","(67, 85)"
number-71.png,"(31, 24)","(31, 79)","(60, 24)","(60, 79)"
number-90 (2).png,"(22, 22)","(22, 86)","(75, 22)","(75, 86)"
number-90.png,"(36, 22)","(36, 79)","(65, 22)","(65, 79)"
